Lab2/VHDL model - A5_1/lfsr.vcd
$date
  Mon Mar 19 10:05:03 2018
$end
$version
  GHDL v0
$end
$timescale
  1 fs
$end
$var reg 1 ! clock $end
$var reg 19 " q1[18:0] $end
$var reg 22 # q2[21:0] $end
$var reg 23 $ q3[22:0] $end
$var reg 1 % load $end
$var reg 1 & lfsra $end
$var reg 1 ' lfsrb $end
$var reg 1 ( lfsrc $end
$var reg 1 ) rnd $end
$scope module uut1 $end
$var reg 1 * clk $end
$var reg 1 + ld $end
$var reg 19 , data[18:0] $end
$var reg 1 - r $end
$var reg 19 . q[18:0] $end
$upscope $end
$scope module uut2 $end
$var reg 1 / clk $end
$var reg 1 0 ld $end
$var reg 22 1 data[21:0] $end
$var reg 1 2 r $end
$var reg 22 3 q[21:0] $end
$upscope $end
$scope module uut3 $end
$var reg 1 4 clk $end
$var reg 1 5 ld $end
$var reg 23 6 data[22:0] $end
$var reg 1 7 r $end
$var reg 23 8 q[22:0] $end
$upscope $end
$enddefinitions $end
#0
1!
b0000000000000000001 "
b0000000000000000000001 #
b00000000000000000000001 $
1%
0&
0'
0(
0)
1*
1+
b0000000000000000001 ,
0-
b0000000000000000001 .
1/
10
b0000000000000000000001 1
02
b0000000000000000000001 3
14
15
b00000000000000000000001 6
07
b00000000000000000000001 8
#5000000
0!
0%
0*
0+
0/
00
04
05
#10000000
1!
1*
b0000000000000000010 .
1/
b0000000000000000000010 3
14
b00000000000000000000010 8
#15000000
0!
0*
0/
04
#20000000
1!
1*
b0000000000000000100 .
1/
b0000000000000000000100 3
14
b00000000000000000000100 8
#25000000
0!
0*
0/
04
#30000000
1!
1*
b0000000000000001000 .
1/
b0000000000000000001000 3
14
b00000000000000000001000 8
#35000000
0!
0*
0/
04
#40000000
1!
1*
b0000000000000010000 .
1/
b0000000000000000010000 3
14
b00000000000000000010000 8
#45000000
0!
0*
0/
04
#50000000
1!
1*
b0000000000000100000 .
1/
b0000000000000000100000 3
14
b00000000000000000100000 8
#55000000
0!
0*
0/
04
#60000000
1!
1*
b0000000000001000000 .
1/
b0000000000000001000000 3
14
b00000000000000001000000 8
#65000000
0!
0*
0/
04
#70000000
1!
1*
b0000000000010000000 .
1/
b0000000000000010000000 3
14
b00000000000000010000000 8
#75000000
0!
0*
0/
04
#80000000
1!
1*
b0000000000100000000 .
1/
b0000000000000100000000 3
14
b00000000000000100000001 8
#85000000
0!
0*
0/
04
#90000000
1!
1*
b0000000001000000000 .
1/
b0000000000001000000000 3
14
b00000000000001000000010 8
#95000000
0!
0*
0/
04
#100000000
1!
1*
b0000000010000000000 .
1/
b0000000000010000000000 3
14
b00000000000010000000100 8
#105000000
0!
0*
0/
04
#110000000
1!
1*
b0000000100000000000 .
1/
b0000000000100000000000 3
14
b00000000000100000001000 8
#115000000
0!
0*
0/
04
#120000000
1!
1*
b0000001000000000000 .
1/
b0000000001000000000000 3
14
b00000000001000000010000 8
#125000000
0!
0*
0/
04
#130000000
1!
1*
b0000010000000000000 .
1/
b0000000010000000000000 3
14
b00000000010000000100000 8
#135000000
0!
0*
0/
04
#140000000
1!
1*
b0000100000000000001 .
1/
b0000000100000000000000 3
14
b00000000100000001000000 8
#145000000
0!
0*
0/
04
#150000000
1!
1*
b0001000000000000010 .
1/
b0000001000000000000000 3
14
b00000001000000010000000 8
#155000000
0!
0*
0/
04
#160000000
1!
1*
b0010000000000000100 .
1/
b0000010000000000000000 3
14
b00000010000000100000001 8
#165000000
0!
0*
0/
04
#170000000
1!
1*
b0100000000000001001 .
1/
b0000100000000000000000 3
14
b00000100000001000000010 8
#175000000
0!
0*
0/
04
#180000000
1!
1&
1)
1*
1-
b1000000000000010011 .
1/
b0001000000000000000000 3
14
b00001000000010000000100 8
#185000000
0!
0*
0/
04
#190000000
1!
0&
0)
1*
0-
b0000000000000100111 .
1/
b0010000000000000000000 3
14
b00010000000100000001000 8
#195000000
0!
0*
0/
04
#200000000
1!
1*
b0000000000001001110 .
1/
b0100000000000000000000 3
14
b00100000001000000010000 8
#205000000
0!
0*
0/
04
#210000000
1!
1'
1)
1*
b0000000000010011100 .
1/
12
b1000000000000000000001 3
14
b01000000010000000100001 8
#215000000
0!
0*
0/
04
#220000000
1!
0'
1(
1*
b0000000000100111000 .
1/
02
b0000000000000000000011 3
14
17
b10000000100000001000011 8
#225000000
0!
0*
0/
04
#230000000
1!
0(
0)
1*
b0000000001001110000 .
1/
b0000000000000000000110 3
14
07
b00000001000000010000111 8
#235000000
0!
0*
0/
04
#240000000
1!
1*
b0000000010011100000 .
1/
b0000000000000000001100 3
14
b00000010000000100001111 8
#245000000
0!
0*
0/
04
#250000000
1!
1*
b0000000100111000000 .
1/
b0000000000000000011000 3
14
b00000100000001000011110 8
#255000000
0!
0*
0/
04
#260000000
1!
1*
b0000001001110000000 .
1/
b0000000000000000110000 3
14
b00001000000010000111100 8
#265000000
0!
0*
0/
04
#270000000
1!
1*
b0000010011100000000 .
1/
b0000000000000001100000 3
14
b00010000000100001111000 8
#275000000
0!
0*
0/
04
#280000000
1!
1*
b0000100111000000001 .
1/
b0000000000000011000000 3
14
b00100000001000011110000 8
#285000000
0!
0*
0/
04
#290000000
1!
1*
b0001001110000000010 .
1/
b0000000000000110000000 3
14
b01000000010000111100000 8
#295000000
0!
0*
0/
04
#300000000
1!
1(
1)
1*
b0010011100000000100 .
1/
b0000000000001100000000 3
14
17
b10000000100001111000000 8
#305000000
0!
0*
0/
04
#310000000
1!
0(
0)
1*
b0100111000000001000 .
1/
b0000000000011000000000 3
14
07
b00000001000011110000000 8
#315000000
0!
0*
0/
04
#320000000
1!
1&
1)
1*
1-
b1001110000000010000 .
1/
b0000000000110000000000 3
14
b00000010000111100000001 8
#325000000
0!
0*
0/
04
#330000000
1!
0&
0)
1*
0-
b0011100000000100000 .
1/
b0000000001100000000000 3
14
b00000100001111000000010 8
#335000000
0!
0*
0/
04
#340000000
1!
1*
b0111000000001000001 .
1/
b0000000011000000000000 3
14
b00001000011110000000100 8
#345000000
0!
0*
0/
04
#350000000
1!
1&
1)
1*
1-
b1110000000010000010 .
1/
b0000000110000000000000 3
14
b00010000111100000001000 8
#355000000
0!
0*
0/
04
#360000000
1!
1*
b1100000000100000101 .
1/
b0000001100000000000000 3
14
b00100001111000000010000 8
#365000000
0!
0*
0/
04
#370000000
1!
1*
b1000000001000001010 .
1/
b0000011000000000000000 3
14
b01000011110000000100001 8
#375000000
0!
0*
0/
04
#380000000
1!
0&
1(
1*
0-
b0000000010000010101 .
1/
b0000110000000000000000 3
14
17
b10000111100000001000011 8
#385000000
0!
0*
0/
04
#390000000
1!
0(
0)
1*
b0000000100000101010 .
1/
b0001100000000000000000 3
14
07
b00001111000000010000111 8
#395000000
0!
0*
0/
04
#400000000
1!
1*
b0000001000001010100 .
1/
b0011000000000000000000 3
14
b00011110000000100001111 8
#405000000
0!
0*
0/
04
#410000000
1!
1*
b0000010000010101000 .
1/
b0110000000000000000000 3
14
b00111100000001000011110 8
#415000000
0!
0*
0/
04
#420000000
1!
1'
1)
1*
b0000100000101010001 .
1/
12
b1100000000000000000001 3
14
b01111000000010000111101 8
#425000000
0!
0*
0/
04
#430000000
1!
1(
0)
1*
b0001000001010100010 .
1/
b1000000000000000000010 3
14
17
b11110000000100001111010 8
#435000000
0!
0*
0/
04
#440000000
1!
0'
1)
1*
b0010000010101000100 .
1/
02
b0000000000000000000101 3
14
b11100000001000011110101 8
#445000000
0!
0*
0/
04
#450000000
1!
1*
b0100000101010001001 .
1/
b0000000000000000001010 3
14
b11000000010000111101010 8
#455000000
0!
0*
0/
04
#460000000
1!
1&
0)
1*
1-
b1000001010100010011 .
1/
b0000000000000000010100 3
14
b10000000100001111010101 8
#465000000
0!
0*
0/
04
#470000000
1!
0&
0(
1*
0-
b0000010101000100111 .
1/
b0000000000000000101000 3
14
07
b00000001000011110101010 8
#475000000
0!
0*
0/
04
#480000000
1!
1*
b0000101010001001111 .
1/
b0000000000000001010000 3
14
b00000010000111101010101 8
#485000000
0!
0*
0/
04
#490000000
1!
1*
b0001010100010011110 .
1/
b0000000000000010100000 3
14
b00000100001111010101010 8
#495000000
0!
0*
0/
04
#500000000
1!
1*
b0010101000100111101 .
1/
b0000000000000101000000 3
14
b00001000011110101010101 8
#505000000
0!
0*
0/
04
#510000000
1!
1*
b0101010001001111011 .
1/
b0000000000001010000000 3
14
b00010000111101010101010 8
#515000000
0!
0*
0/
04
#520000000
1!
1&
1)
1*
1-
b1010100010011110110 .
1/
b0000000000010100000000 3
14
b00100001111010101010101 8
#525000000
0!
0*
0/
04
#530000000
1!
0&
0)
1*
0-
b0101000100111101100 .
1/
b0000000000101000000000 3
14
b01000011110101010101011 8
#535000000
0!
0*
0/
04
#540000000
1!
1&
1(
1*
1-
b1010001001111011001 .
1/
b0000000001010000000000 3
14
17
b10000111101010101010110 8
#545000000
0!
0*
0/
04
#550000000
1!
0&
0(
1*
0-
b0100010011110110010 .
1/
b0000000010100000000000 3
14
07
b00001111010101010101101 8
#555000000
0!
0*
0/
04
#560000000
1!
1&
1)
1*
1-
b1000100111101100100 .
1/
b0000000101000000000000 3
14
b00011110101010101011011 8
#565000000
0!
0*
0/
04
#570000000
1!
0&
0)
1*
0-
b0001001111011001001 .
1/
b0000001010000000000000 3
14
b00111101010101010110110 8
#575000000
0!
0*
0/
04
#580000000
1!
1*
b0010011110110010010 .
1/
b0000010100000000000000 3
14
b01111010101010101101100 8
#585000000
0!
0*
0/
04
#590000000
1!
1(
1)
1*
b0100111101100100100 .
1/
b0000101000000000000000 3
14
17
b11110101010101011011000 8
#595000000
0!
0*
0/
04
#600000000
1!
1&
0)
1*
1-
b1001111011001001000 .
1/
b0001010000000000000000 3
14
b11101010101010110110000 8
#605000000
0!
0*
0/
04
#610000000
1!
0&
1)
1*
0-
b0011110110010010000 .
1/
b0010100000000000000000 3
14
b11010101010101101100000 8
#615000000
0!
0*
0/
04
#620000000
1!
1*
b0111101100100100000 .
1/
b0101000000000000000000 3
14
b10101010101011011000000 8
#625000000
0!
0*
0/
04
#630000000
1!
1&
1'
0(
0)
1*
1-
b1111011001001000000 .
1/
12
b1010000000000000000001 3
14
07
b01010101010110110000001 8
#635000000
0!
0*
0/
04
#640000000
1!
0'
1(
1*
b1110110010010000000 .
1/
02
b0100000000000000000011 3
14
17
b10101010101101100000010 8
#645000000
0!
0*
0/
04
#650000000
1!
1'
0(
1*
b1101100100100000000 .
1/
12
b1000000000000000000111 3
14
07
b01010101011011000000100 8
#655000000
0!
0*
0/
04
#660000000
1!
0'
1(
1*
b1011001001000000000 .
1/
02
b0000000000000000001111 3
14
17
b10101010110110000001001 8
#665000000
0!
0*
0/
04
#670000000
1!
0&
0(
1*
0-
b0110010010000000000 .
1/
b0000000000000000011110 3
14
07
b01010101101100000010010 8
#675000000
0!
0*
0/
04
#680000000
1!
1&
1(
1*
1-
b1100100100000000001 .
1/
b0000000000000000111100 3
14
17
b10101011011000000100101 8
#685000000
0!
0*
0/
04
#690000000
1!
0(
1)
1*
b1001001000000000010 .
1/
b0000000000000001111000 3
14
07
b01010110110000001001010 8
#695000000
0!
0*
0/
04
#700000000
1!
0&
1(
1*
0-
b0010010000000000101 .
1/
b0000000000000011110000 3
14
17
b10101101100000010010101 8
#705000000
0!
0*
0/
04
#710000000
1!
0(
0)
1*
b0100100000000001010 .
1/
b0000000000000111100000 3
14
07
b01011011000000100101011 8
#715000000
0!
0*
0/
04
#720000000
1!
1&
1(
1*
1-
b1001000000000010101 .
1/
b0000000000001111000000 3
14
17
b10110110000001001010111 8
#725000000
0!
0*
0/
04
#730000000
1!
0&
0(
1*
0-
b0010000000000101011 .
1/
b0000000000011110000000 3
14
07
b01101100000010010101110 8
#735000000
0!
0*
0/
04
#740000000
1!
1(
1)
1*
b0100000000001010111 .
1/
b0000000000111100000000 3
14
17
b11011000000100101011101 8
#745000000
0!
0*
0/
04
#750000000
1!
1&
0)
1*
1-
b1000000000010101111 .
1/
b0000000001111000000000 3
14
b10110000001001010111010 8
#755000000
0!
0*
0/
04
#760000000
1!
0&
0(
1*
0-
b0000000000101011111 .
1/
b0000000011110000000000 3
14
07
b01100000010010101110101 8
#765000000
0!
0*
0/
04
#770000000
1!
1(
1)
1*
b0000000001010111110 .
1/
b0000000111100000000000 3
14
17
b11000000100101011101010 8
#775000000
0!
0*
0/
04
#780000000
1!
1*
b0000000010101111100 .
1/
b0000001111000000000000 3
14
b10000001001010111010101 8
#785000000
0!
0*
0/
04
#790000000
1!
0(
0)
1*
b0000000101011111000 .
1/
b0000011110000000000000 3
14
07
b00000010010101110101010 8
#795000000
0!
0*
0/
04
#800000000
1!
1*
b0000001010111110000 .
1/
b0000111100000000000000 3
14
b00000100101011101010101 8
#805000000
0!
0*
0/
04
#810000000
1!
1*
b0000010101111100000 .
1/
b0001111000000000000000 3
14
b00001001010111010101010 8
#815000000
0!
0*
0/
04
#820000000
1!
1*
b0000101011111000001 .
1/
b0011110000000000000000 3
14
b00010010101110101010101 8
#825000000
0!
0*
0/
04
#830000000
1!
1*
b0001010111110000010 .
1/
b0111100000000000000000 3
14
b00100101011101010101010 8
#835000000
0!
0*
0/
04
#840000000
1!
1'
1)
1*
b0010101111100000101 .
1/
12
b1111000000000000000001 3
14
b01001010111010101010100 8
#845000000
0!
0*
0/
04
#850000000
1!
1(
0)
1*
b0101011111000001011 .
1/
b1110000000000000000010 3
14
17
b10010101110101010101001 8
#855000000
0!
0*
0/
04
#860000000
1!
1&
0(
1*
1-
b1010111110000010110 .
1/
b1100000000000000000100 3
14
07
b00101011101010101010010 8
#865000000
0!
0*
0/
04
#870000000
1!
0&
1)
1*
0-
b0101111100000101101 .
1/
b1000000000000000001000 3
14
b01010111010101010100101 8
#875000000
0!
0*
0/
04
#880000000
1!
1&
0'
1(
0)
1*
1-
b1011111000001011010 .
1/
02
b0000000000000000010001 3
14
17
b10101110101010101001010 8
#885000000
0!
0*
0/
04
#890000000
1!
0&
0(
1*
0-
b0111110000010110101 .
1/
b0000000000000000100010 3
14
07
b01011101010101010010100 8
#895000000
0!
0*
0/
04
#900000000
1!
1&
1(
1*
1-
b1111100000101101011 .
1/
b0000000000000001000100 3
14
17
b10111010101010100101000 8
#905000000
0!
0*
0/
04
#910000000
1!
0(
1)
1*
b1111000001011010111 .
1/
b0000000000000010001000 3
14
07
b01110101010101001010000 8
#915000000
0!
0*
0/
04
#920000000
1!
1(
0)
1*
b1110000010110101111 .
1/
b0000000000000100010000 3
14
17
b11101010101010010100000 8
#925000000
0!
0*
0/
04
#930000000
1!
1*
b1100000101101011111 .
1/
b0000000000001000100000 3
14
b11010101010100101000000 8
#935000000
0!
0*
0/
04
#940000000
1!
1*
b1000001011010111110 .
1/
b0000000000010001000000 3
14
b10101010101001010000000 8
#945000000
0!
0*
0/
04
#950000000
1!
0&
0(
1*
0-
b0000010110101111101 .
1/
b0000000000100010000000 3
14
07
b01010101010010100000001 8
#955000000
0!
0*
0/
04
#960000000
1!
1(
1)
1*
b0000101101011111011 .
1/
b0000000001000100000000 3
14
17
b10101010100101000000011 8
#965000000
0!
0*
0/
04
#970000000
1!
0(
0)
1*
b0001011010111110110 .
1/
b0000000010001000000000 3
14
07
b01010101001010000000110 8
#975000000
0!
0*
0/
04
#980000000
1!
1(
1)
1*
b0010110101111101101 .
1/
b0000000100010000000000 3
14
17
b10101010010100000001101 8
#985000000
0!
0*
0/
04
#990000000
1!
0(
0)
1*
b0101101011111011010 .
1/
b0000001000100000000000 3
14
07
b01010100101000000011010 8
#995000000
0!
0*
0/
04
#1000000000
1!
1&
1(
1*
1-
b1011010111110110101 .
1/
b0000010001000000000000 3
14
17
b10101001010000000110101 8
#1005000000
0!
0*
0/
04
#1010000000
1!
0&
0(
1*
0-
b0110101111101101011 .
1/
b0000100010000000000000 3
14
07
b01010010100000001101010 8
#1015000000
0!
0*
0/
04
#1020000000
1!
1&
1(
1*
1-
b1101011111011010110 .
1/
b0001000100000000000000 3
14
17
b10100101000000011010101 8
#1025000000
0!
0*
0/
04
#1030000000
1!
0(
1)
1*
b1010111110110101101 .
1/
b0010001000000000000000 3
14
07
b01001010000000110101011 8
#1035000000
0!
0*
0/
04
#1040000000
1!
0&
1(
1*
0-
b0101111101101011011 .
1/
b0100010000000000000000 3
14
17
b10010100000001101010110 8
#1045000000
0!
0*
0/
04
#1050000000
1!
1&
1'
0(
0)
1*
1-
b1011111011010110110 .
1/
12
b1000100000000000000001 3
14
07
b00101000000011010101101 8
#1055000000
0!
0*
0/
04
#1060000000
1!
0&
0'
1*
0-
b0111110110101101101 .
1/
02
b0001000000000000000011 3
14
b01010000000110101011010 8
#1065000000
0!
0*
0/
04
#1070000000
1!
1&
1(
1*
1-
b1111101101011011011 .
1/
b0010000000000000000110 3
14
17
b10100000001101010110101 8
#1075000000
0!
0*
0/
04
#1080000000
1!
0(
1)
1*
b1111011010110110111 .
1/
b0100000000000000001100 3
14
07
b01000000011010101101011 8
#1085000000
0!
0*
0/
04
#1090000000
1!
1'
1(
1*
b1110110101101101110 .
1/
12
b1000000000000000011001 3
14
17
b10000000110101011010111 8
#1095000000
0!
0*
0/
04
#1100000000
1!
0'
0(
1*
b1101101011011011100 .
1/
02
b0000000000000000110011 3
14
07
b00000001101010110101110 8
#1105000000
0!
0*
0/
04
#1110000000
1!
1*
b1011010110110111000 .
1/
b0000000000000001100110 3
14
b00000011010101101011101 8
#1115000000
0!
0*
0/
04
#1120000000
1!
0&
0)
1*
0-
b0110101101101110001 .
1/
b0000000000000011001100 3
14
b00000110101011010111010 8
#1125000000
0!
0*
0/
04
#1130000000
1!
1&
1)
1*
1-
b1101011011011100010 .
1/
b0000000000000110011000 3
14
b00001101010110101110101 8
#1135000000
0!
0*
0/
04
#1140000000
1!
1*
b1010110110111000101 .
1/
b0000000000001100110000 3
14
b00011010101101011101010 8
#1145000000
0!
0*
0/
04
#1150000000
1!
0&
0)
1*
0-
b0101101101110001011 .
1/
b0000000000011001100000 3
14
b00110101011010111010101 8
#1155000000
0!
0*
0/
04
#1160000000
1!
1&
1)
1*
1-
b1011011011100010111 .
1/
b0000000000110011000000 3
14
b01101010110101110101010 8
#1165000000
0!
0*
0/
04
#1170000000
1!
0&
1(
1*
0-
b0110110111000101111 .
1/
b0000000001100110000000 3
14
17
b11010101101011101010101 8
#1175000000
0!
0*
0/
04
#1180000000
1!
1&
0)
1*
1-
b1101101110001011111 .
1/
b0000000011001100000000 3
14
b10101011010111010101010 8
#1185000000
0!
0*
0/
04
#1190000000
1!
0(
1)
1*
b1011011100010111110 .
1/
b0000000110011000000000 3
14
07
b01010110101110101010101 8
#1195000000
0!
0*
0/
04
#1200000000
1!
0&
1(
1*
0-
b0110111000101111101 .
1/
b0000001100110000000000 3
14
17
b10101101011101010101011 8
#1205000000
0!
0*
0/
04
#1210000000
1!
1&
0(
1*
1-
b1101110001011111011 .
1/
b0000011001100000000000 3
14
07
b01011010111010101010111 8
#1215000000
0!
0*
0/
04
#1220000000
1!
1(
0)
1*
b1011100010111110111 .
1/
b0000110011000000000000 3
14
17
b10110101110101010101111 8
#1225000000
0!
0*
0/
04
#1230000000
1!
0&
0(
1*
0-
b0111000101111101110 .
1/
b0001100110000000000000 3
14
07
b01101011101010101011111 8
#1235000000
0!
0*
0/
04
#1240000000
1!
1&
1(
1*
1-
b1110001011111011100 .
1/
b0011001100000000000000 3
14
17
b11010111010101010111110 8
#1245000000
0!
0*
0/
04
#1250000000
1!
1*
b1100010111110111001 .
1/
b0110011000000000000000 3
14
b10101110101010101111101 8
#1255000000
0!
0*
0/
04
#1260000000
1!
1'
0(
1*
b1000101111101110011 .
1/
12
b1100110000000000000001 3
14
07
b01011101010101011111010 8
#1265000000
0!
0*
0/
04
#1270000000
1!
0&
1(
1*
0-
b0001011111011100111 .
1/
b1001100000000000000010 3
14
17
b10111010101010111110100 8
#1275000000
0!
0*
0/
04
#1280000000
1!
0'
0(
1*
b0010111110111001111 .
1/
02
b0011000000000000000101 3
14
07
b01110101010101111101001 8
#1285000000
0!
0*
0/
04
#1290000000
1!
1(
1)
1*
b0101111101110011110 .
1/
b0110000000000000001010 3
14
17
b11101010101011111010011 8
#1295000000
0!
0*
0/
04
#1300000000
1!
1&
1'
1*
1-
b1011111011100111100 .
1/
12
b1100000000000000010101 3
14
b11010101010111110100110 8
#1305000000
0!
0*
0/
04
#1310000000
1!
0&
0)
1*
0-
b0111110111001111001 .
1/
b1000000000000000101010 3
14
b10101010101111101001101 8
#1315000000
0!
0*
0/
04
#1320000000
1!
1&
0'
0(
1)
1*
1-
b1111101110011110011 .
1/
02
b0000000000000001010101 3
14
07
b01010101011111010011010 8
#1325000000
0!
0*
0/
04
#1330000000
1!
1(
0)
1*
b1111011100111100111 .
1/
b0000000000000010101010 3
14
17
b10101010111110100110100 8
#1335000000
0!
0*
0/
04
#1340000000
1!
0(
1)
1*
b1110111001111001110 .
1/
b0000000000000101010100 3
14
07
b01010101111101001101000 8
#1345000000
0!
0*
0/
04
#1350000000
1!
1(
0)
1*
b1101110011110011100 .
1/
b0000000000001010101000 3
14
17
b10101011111010011010001 8
#1355000000
0!
0*
0/
04
#1360000000
1!
0(
1)
1*
b1011100111100111001 .
1/
b0000000000010101010000 3
14
07
b01010111110100110100011 8
#1365000000
0!
0*
0/
04
#1370000000
1!
0&
1(
1*
0-
b0111001111001110010 .
1/
b0000000000101010100000 3
14
17
b10101111101001101000110 8
#1375000000
0!
0*
0/
04
#1380000000
1!
1&
0(
1*
1-
b1110011110011100100 .
1/
b0000000001010101000000 3
14
07
b01011111010011010001100 8
#1385000000
0!
0*
0/
04
#1390000000
1!
1(
0)
1*
b1100111100111001000 .
1/
b0000000010101010000000 3
14
17
b10111110100110100011000 8
#1395000000
0!
0*
0/
04
#1400000000
1!
0(
1)
1*
b1001111001110010001 .
1/
b0000000101010100000000 3
14
07
b01111101001101000110000 8
#1405000000
0!
0*
0/
04
#1410000000
1!
0&
1(
1*
0-
b0011110011100100010 .
1/
b0000001010101000000000 3
14
17
b11111010011010001100000 8
#1415000000
0!
0*
0/
04
#1420000000
1!
1*
b0111100111001000100 .
1/
b0000010101010000000000 3
14
b11110100110100011000001 8
#1425000000
0!
0*
0/
04
#1430000000
1!
1&
0)
1*
1-
b1111001110010001000 .
1/
b0000101010100000000000 3
14
b11101001101000110000010 8
#1435000000
0!
0*
0/
04
#1440000000
1!
1*
b1110011100100010001 .
1/
b0001010101000000000000 3
14
b11010011010001100000100 8
#1445000000
0!
0*
0/
04
#1450000000
1!
1*
b1100111001000100010 .
1/
b0010101010000000000000 3
14
b10100110100011000001000 8
#1455000000
0!
0*
0/
04
#1460000000
1!
0(
1)
1*
b1001110010001000101 .
1/
b0101010100000000000000 3
14
07
b01001101000110000010000 8
#1465000000
0!
0*
0/
04
#1470000000
1!
0&
1'
1(
0)
1*
0-
b0011100100010001010 .
1/
12
b1010101000000000000001 3
14
17
b10011010001100000100001 8
#1475000000
0!
0*
0/
04
#1480000000
1!
0'
0(
1*
b0111001000100010101 .
1/
02
b0101010000000000000011 3
14
07
b00110100011000001000011 8
#1485000000
0!
0*
0/
04
#1490000000
1!
1&
1'
1*
1-
b1110010001000101010 .
1/
12
b1010100000000000000111 3
14
b01101000110000010000111 8
#1495000000
0!
0*
0/
04
#1500000000
1!
0'
1(
1*
b1100100010001010100 .
1/
02
b0101000000000000001111 3
14
17
b11010001100000100001111 8
#1505000000
0!
0*
0/
04
#1510000000
1!
1'
1)
1*
b1001000100010101000 .
1/
12
b1010000000000000011111 3
14
b10100011000001000011110 8
#1515000000
0!
0*
0/
04
#1520000000
1!
0&
0'
0(
0)
1*
0-
b0010001000101010001 .
1/
02
b0100000000000000111111 3
14
07
b01000110000010000111100 8
#1525000000
0!
0*
0/
04
#1530000000
1!
1'
1(
1*
b0100010001010100011 .
1/
12
b1000000000000001111111 3
14
17
b10001100000100001111001 8
#1535000000
0!
0*
0/
04
#1540000000
1!
1&
0'
0(
1)
1*
1-
b1000100010101000110 .
1/
02
b0000000000000011111111 3
14
07
b00011000001000011110011 8
#1545000000
0!
0*
0/
04
#1550000000
1!
0&
0)
1*
0-
b0001000101010001101 .
1/
b0000000000000111111110 3
14
b00110000010000111100111 8
#1555000000
0!
0*
0/
04
#1560000000
1!
1*
b0010001010100011010 .
1/
b0000000000001111111100 3
14
b01100000100001111001110 8
#1565000000
0!
0*
0/
04
#1570000000
1!
1(
1)
1*
b0100010101000110101 .
1/
b0000000000011111111000 3
14
17
b11000001000011110011101 8
#1575000000
0!
0*
0/
04
#1580000000
1!
1&
0)
1*
1-
b1000101010001101010 .
1/
b0000000000111111110000 3
14
b10000010000111100111011 8
#1585000000
0!
0*
0/
04
#1590000000
1!
0&
0(
1*
0-
b0001010100011010101 .
1/
b0000000001111111100000 3
14
07
b00000100001111001110111 8
#1595000000
0!
0*
0/
04
#1600000000
1!
1*
b0010101000110101011 .
1/
b0000000011111111000000 3
14
b00001000011110011101110 8
#1605000000
0!
0*
0/
04
#1610000000
1!
1*
b0101010001101010111 .
1/
b0000000111111110000000 3
14
b00010000111100111011101 8
#1615000000
0!
0*
0/
04
#1620000000
1!
1&
1)
1*
1-
b1010100011010101110 .
1/
b0000001111111100000000 3
14
b00100001111001110111011 8
#1625000000
0!
0*
0/
04
#1630000000
1!
0&
0)
1*
0-
b0101000110101011100 .
1/
b0000011111111000000000 3
14
b01000011110011101110110 8
#1635000000
0!
0*
0/
04
#1640000000
1!
1&
1(
1*
1-
b1010001101010111001 .
1/
b0000111111110000000000 3
14
17
b10000111100111011101101 8
#1645000000
0!
0*
0/
04
#1650000000
1!
0&
0(
1*
0-
b0100011010101110010 .
1/
b0001111111100000000000 3
14
07
b00001111001110111011010 8
#1655000000
0!
0*
0/
04
#1660000000
1!
1&
1)
1*
1-
b1000110101011100100 .
1/
b0011111111000000000000 3
14
b00011110011101110110101 8
#1665000000
0!
0*
0/
04
#1670000000
1!
0&
0)
1*
0-
b0001101010111001000 .
1/
b0111111110000000000000 3
14
b00111100111011101101011 8
#1675000000
0!
0*
0/
04
#1680000000
1!
1'
1)
1*
b0011010101110010000 .
1/
12
b1111111100000000000001 3
14
b01111001110111011010111 8
#1685000000
0!
0*
0/
04
#1690000000
1!
1(
0)
1*
b0110101011100100000 .
1/
b1111111000000000000010 3
14
17
b11110011101110110101111 8
#1695000000
0!
0*
0/
04
#1700000000
1!
1&
1)
1*
1-
b1101010111001000000 .
1/
b1111110000000000000100 3
14
b11100111011101101011110 8
#1705000000
0!
0*
0/
04
#1710000000
1!
1*
b1010101110010000001 .
1/
b1111100000000000001000 3
14
b11001110111011010111101 8
#1715000000
0!
0*
0/
04
#1720000000
1!
0&
0)
1*
0-
b0101011100100000010 .
1/
b1111000000000000010000 3
14
b10011101110110101111011 8
#1725000000
0!
0*
0/
04
#1730000000
1!
1&
0(
1*
1-
b1010111001000000100 .
1/
b1110000000000000100000 3
14
07
b00111011101101011110111 8
#1735000000
0!
0*
0/
04
#1740000000
1!
0&
1)
1*
0-
b0101110010000001001 .
1/
b1100000000000001000000 3
14
b01110111011010111101110 8
#1745000000
0!
0*
0/
04
#1750000000
1!
1&
1(
1*
1-
b1011100100000010010 .
1/
b1000000000000010000000 3
14
17
b11101110110101111011101 8
#1755000000
0!
0*
0/
04
#1760000000
1!
0&
0'
1*
0-
b0111001000000100100 .
1/
02
b0000000000000100000001 3
14
b11011101101011110111010 8
#1765000000
0!
0*
0/
04
#1770000000
1!
1&
0)
1*
1-
b1110010000001001000 .
1/
b0000000000001000000010 3
14
b10111011010111101110101 8
#1775000000
0!
0*
0/
04
#1780000000
1!
0(
1)
1*
b1100100000010010000 .
1/
b0000000000010000000100 3
14
07
b01110110101111011101010 8
#1785000000
0!
0*
0/
04
#1790000000
1!
1(
0)
1*
b1001000000100100000 .
1/
b0000000000100000001000 3
14
17
b11101101011110111010101 8
#1795000000
0!
0*
0/
04
#1800000000
1!
0&
1)
1*
0-
b0010000001001000001 .
1/
b0000000001000000010000 3
14
b11011010111101110101010 8
#1805000000
0!
0*
0/
04
#1810000000
1!
1*
b0100000010010000011 .
1/
b0000000010000000100000 3
14
b10110101111011101010101 8
#1815000000
0!
0*
0/
04
#1820000000
1!
1&
0(
1*
1-
b1000000100100000111 .
1/
b0000000100000001000000 3
14
07
b01101011110111010101010 8
#1825000000
0!
0*
0/
04
#1830000000
1!
0&
1(
1*
0-
b0000001001000001111 .
1/
b0000001000000010000000 3
14
17
b11010111101110101010101 8
#1835000000
0!
0*
0/
04
#1840000000
1!
1*
b0000010010000011110 .
1/
b0000010000000100000000 3
14
b10101111011101010101010 8
#1845000000
0!
0*
0/
04
#1850000000
1!
0(
0)
1*
b0000100100000111101 .
1/
b0000100000001000000000 3
14
07
b01011110111010101010101 8
#1855000000
0!
0*
0/
04
#1860000000
1!
1(
1)
1*
b0001001000001111010 .
1/
b0001000000010000000000 3
14
17
b10111101110101010101011 8
#1865000000
0!
0*
0/
04
#1870000000
1!
0(
0)
1*
b0010010000011110100 .
1/
b0010000000100000000000 3
14
07
b01111011101010101010111 8
#1875000000
0!
0*
0/
04
#1880000000
1!
1(
1)
1*
b0100100000111101000 .
1/
b0100000001000000000000 3
14
17
b11110111010101010101110 8
#1885000000
0!
0*
0/
04
#1890000000
1!
1&
1'
1*
1-
b1001000001111010001 .
1/
12
b1000000010000000000001 3
14
b11101110101010101011100 8
#1895000000
0!
0*
0/
04
#1900000000
1!
0&
0'
1*
0-
b0010000011110100011 .
1/
02
b0000000100000000000011 3
14
b11011101010101010111001 8
#1905000000
0!
0*
0/
04
#1910000000
1!
1*
b0100000111101000111 .
1/
b0000001000000000000110 3
14
b10111010101010101110011 8
